{
  "cloudinary": {
    "cloud_name": "swappsy",
    "api_key": "297731357291345",
    "api_secret": "xQcj5PIcalGJEEMe2qzGYyLfdWo"
  },
  "mail_gun" : {
    "api_key": "key-XXXXXXXXXXXXXXXXXXXXXXX",
    "domain": "mydomain.mailgun.org"
  },
  "twilio" : {
    "account_sid": "key-XXXXXXXXXXXXXXXXXXXXXXX",
    "auth_token": "mydomain.mailgun.org"
  }
}
